Day 1 - Historian Hysteria
…
Finally, the largest number in the left list is 4, while the largest number in the right list is 9; these are a distance 5 apart.

To find the total distance between the left list and the right list, add up the distances between all of the pairs you found. In the example above, this is 2 + 1 + 0 + 1 + 2 + 5, a total distance of 11!

Your actual left and right lists contain many location IDs. What is the total distance between your lists?

Input

read_delim("input1.txt", show_col_types = FALSE,
         col_names = c("col1","col3", "col4", "col2")) |>
  select(col1, col2) -> input
input

# A tibble: 1,000 × 2
    col1  col2
   <dbl> <dbl>
 1 38450 56790
 2 94765 36795
 3 89694 26251
 4 96083 99006
 5 57068 30577
 6 32031 60133
 7 97652 26657
 8 85752 40654
 9 66117 44144
10 29274 30512
# ℹ 990 more rows

Running Code

input |>
  arrange(col1) |>
  select(col1) -> input1
input1

# A tibble: 1,000 × 1
    col1
   <dbl>
 1 10003
 2 10072
 3 10266
 4 10383
 5 10483
 6 10498
 7 10548
 8 10589
 9 10605
10 10610
# ℹ 990 more rows

input |>
  arrange(col2) |>
  select(col2) -> input2
input2

# A tibble: 1,000 × 1
    col2
   <dbl>
 1 10051
 2 10589
 3 10589
 4 10638
 5 10699
 6 10996
 7 11025
 8 11243
 9 11820
10 11918
# ℹ 990 more rows

input1 |>
  mutate(input2, col2) -> input3
input3

# A tibble: 1,000 × 2
    col1  col2
   <dbl> <dbl>
 1 10003 10051
 2 10072 10589
 3 10266 10589
 4 10383 10638
 5 10483 10699
 6 10498 10996
 7 10548 11025
 8 10589 11243
 9 10605 11820
10 10610 11918
# ℹ 990 more rows

input3 |>
  mutate(dif = abs(col1 - col2)) -> input4
input4

# A tibble: 1,000 × 3
    col1  col2   dif
   <dbl> <dbl> <dbl>
 1 10003 10051    48
 2 10072 10589   517
 3 10266 10589   323
 4 10383 10638   255
 5 10483 10699   216
 6 10498 10996   498
 7 10548 11025   477
 8 10589 11243   654
 9 10605 11820  1215
10 10610 11918  1308
# ℹ 990 more rows
…
The fourth number, 1, also does not appear in the right list.

The fifth number, 3, appears in the right list three times; the similarity score increases by 9.

The last number, 3, appears in the right list three times; the similarity score again increases by 9.

So, for these example lists, the similarity score at the end of this process is 31 (9 + 4 + 0 + 0 + 9 + 9).

Once again consider your left and right lists. What is their similarity score?

Running code

input3

# A tibble: 1,000 × 2
    col1  col2
   <dbl> <dbl>
 1 10003 10051
 2 10072 10589
 3 10266 10589
 4 10383 10638
 5 10483 10699
 6 10498 10996
 7 10548 11025
 8 10589 11243
 9 10605 11820
10 10610 11918
# ℹ 990 more rows

input |> 
  mutate(occurences = map_int(col1, function(x) sum(x == input$col2))) -> input5
input5

# A tibble: 1,000 × 3
    col1  col2 occurences
   <dbl> <dbl>      <int>
 1 38450 56790          0
 2 94765 36795          0
 3 89694 26251          0
 4 96083 99006          0
 5 57068 30577          6
 6 32031 60133          0
 7 97652 26657          0
 8 85752 40654          0
 9 66117 44144          0
10 29274 30512          0
# ℹ 990 more rows

input5 |>
  mutate(score = col1*occurences)

# A tibble: 1,000 × 4
    col1  col2 occurences  score
   <dbl> <dbl>      <int>  <dbl>
 1 38450 56790          0      0
 2 94765 36795          0      0
 3 89694 26251          0      0
 4 96083 99006          0      0
 5 57068 30577          6 342408
 6 32031 60133          0      0
 7 97652 26657          0      0
 8 85752 40654          0      0
 9 66117 44144          0      0
10 29274 30512          0      0
# ℹ 990 more rows
…
