Day 3 - Rucksack Reorganization – Mariana’ AoC
…
Lowercase item types a through z have priorities 1 through 26.

Uppercase item types A through Z have priorities 27 through 52.

In the above example, the priority of the item type that appears in both compartments of each rucksack is 16 (p), 38 (L), 42 (P), 22 (v), 20 (t), and 19 (s); the sum of these is 157.

Find the item type that appears in both compartments of each rucksack. What is the sum of the priorities of those item types?

Input

suppressWarnings(read_lines("input32022.txt")) |>
  as_tibble() -> rucksack
rucksack

# A tibble: 301 × 1
   value                                         
   <chr>                                         
 1 jLnFTjhwFTLFDGDDvLgvDssBJBbVRNZJPPJBGzBNRVJNRB
 2 QWmffSmMZCfWrmHlCflQWfSNBpVBNbPSbbJNppcVVzzpcp
 3 lflrqrWMmfdMlrtWWmZgDjsqwFwhFDsngnvhqs        
 4 CNBGwsWVsdWDNCCVvfPLfQfgZHPBvpgf              
 5 qhJqJlmcFnhJclllPgZjvpHpvfZpPbLn              
 6 lpMJJhhcSMDMMwws                              
 7 jphtLMfVpjJRjJscMJptssnrwdNwQrNbwNzQTbcNrwQT  
 8 gSPPSqGGGrdLrNQGrr                            
 9 PvWPDvWWCSSBBZPjLVDfhjsLLsDhtR                
10 hlLwDGLNnTrbNdtbdb                            
# ℹ 291 more rows

Running code

rucksack |>
  mutate(mid = nchar(value),
         mid2 = mid/2) |>
  mutate(first_half = substr(value, 1, mid2),
         second_half = str_sub(value, -mid2)) -> half
half

# A tibble: 301 × 5
   value                                        mid  mid2 first_half second_half
   <chr>                                      <int> <dbl> <chr>      <chr>      
 1 jLnFTjhwFTLFDGDDvLgvDssBJBbVRNZJPPJBGzBNR…    46    23 jLnFTjhwF… BJBbVRNZJP…
 2 QWmffSmMZCfWrmHlCflQWfSNBpVBNbPSbbJNppcVV…    46    23 QWmffSmMZ… NBpVBNbPSb…
 3 lflrqrWMmfdMlrtWWmZgDjsqwFwhFDsngnvhqs        38    19 lflrqrWMm… gDjsqwFwhF…
 4 CNBGwsWVsdWDNCCVvfPLfQfgZHPBvpgf              32    16 CNBGwsWVs… vfPLfQfgZH…
 5 qhJqJlmcFnhJclllPgZjvpHpvfZpPbLn              32    16 qhJqJlmcF… PgZjvpHpvf…
 6 lpMJJhhcSMDMMwws                              16     8 lpMJJhhc   SMDMMwws   
 7 jphtLMfVpjJRjJscMJptssnrwdNwQrNbwNzQTbcNr…    44    22 jphtLMfVp… nrwdNwQrNb…
 8 gSPPSqGGGrdLrNQGrr                            18     9 gSPPSqGGG  rdLrNQGrr  
 9 PvWPDvWWCSSBBZPjLVDfhjsLLsDhtR                30    15 PvWPDvWWC… jLVDfhjsLL…
10 hlLwDGLNnTrbNdtbdb                            18     9 hlLwDGLNn  TrbNdtbdb  
# ℹ 291 more rows

half |>
  mutate(lettres_communes = map2_chr(first_half, second_half, ~
    paste(sort(intersect(strsplit(.x, "")[[1]], strsplit(.y, "")[[1]])), collapse = "")
  )) -> half2
half2

# A tibble: 301 × 6
   value                       mid  mid2 first_half second_half lettres_communes
   <chr>                     <int> <dbl> <chr>      <chr>       <chr>           
 1 jLnFTjhwFTLFDGDDvLgvDssB…    46    23 jLnFTjhwF… BJBbVRNZJP… G               
 2 QWmffSmMZCfWrmHlCflQWfSN…    46    23 QWmffSmMZ… NBpVBNbPSb… S               
 3 lflrqrWMmfdMlrtWWmZgDjsq…    38    19 lflrqrWMm… gDjsqwFwhF… q               
 4 CNBGwsWVsdWDNCCVvfPLfQfg…    32    16 CNBGwsWVs… vfPLfQfgZH… B               
 5 qhJqJlmcFnhJclllPgZjvpHp…    32    16 qhJqJlmcF… PgZjvpHpvf… n               
 6 lpMJJhhcSMDMMwws             16     8 lpMJJhhc   SMDMMwws    M               
 7 jphtLMfVpjJRjJscMJptssnr…    44    22 jphtLMfVp… nrwdNwQrNb… c               
 8 gSPPSqGGGrdLrNQGrr           18     9 gSPPSqGGG  rdLrNQGrr   G               
 9 PvWPDvWWCSSBBZPjLVDfhjsL…    30    15 PvWPDvWWC… jLVDfhjsLL… D               
10 hlLwDGLNnTrbNdtbdb           18     9 hlLwDGLNn  TrbNdtbdb   N               
# ℹ 291 more rows
…
                           lettres_communes == "O" ~ "41",
                           lettres_communes == "P" ~ "42",
                           lettres_communes == "Q" ~ "43",
                           lettres_communes == "R" ~ "44",
                           lettres_communes == "S" ~ "45",
                           lettres_communes == "T" ~ "46",
                           lettres_communes == "U" ~ "47",
                           lettres_communes == "V" ~ "48",
                           lettres_communes == "W" ~ "49",
                           lettres_communes == "X" ~ "50",
                           lettres_communes == "Y" ~ "51",
                           lettres_communes == "Z" ~ "52")) -> values
values

# A tibble: 301 × 6
   value   mid  mid2 first_half              second_half        lettres_communes
   <chr> <int> <dbl> <chr>                   <chr>              <chr>           
 1 33       46    23 jLnFTjhwFTLFDGDDvLgvDss BJBbVRNZJPPJBGzBN… G               
 2 45       46    23 QWmffSmMZCfWrmHlCflQWfS NBpVBNbPSbbJNppcV… S               
 3 17       38    19 lflrqrWMmfdMlrtWWmZ     gDjsqwFwhFDsngnvh… q               
 4 28       32    16 CNBGwsWVsdWDNCCV        vfPLfQfgZHPBvpgf   B               
 5 14       32    16 qhJqJlmcFnhJclll        PgZjvpHpvfZpPbLn   n               
 6 39       16     8 lpMJJhhc                SMDMMwws           M               
 7 3        44    22 jphtLMfVpjJRjJscMJptss  nrwdNwQrNbwNzQTbc… c               
 8 33       18     9 gSPPSqGGG               rdLrNQGrr          G               
 9 30       30    15 PvWPDvWWCSSBBZP         jLVDfhjsLLsDhtR    D               
10 40       18     9 hlLwDGLNn               TrbNdtbdb          N               
# ℹ 291 more rows

as.numeric(values$value) |>
  as.tibble() -> chiffres

Warning: `as.tibble()` was deprecated in tibble 2.0.0.
ℹ Please use `as_tibble()` instead.
ℹ The signature and semantics have changed, see `?as_tibble`.

chiffres

# A tibble: 301 × 1
   value
   <dbl>
 1    33
 2    45
 3    17
 4    28
 5    14
 6    39
 7     3
 8    33
 9    30
10    40
# ℹ 291 more rows
…
wMqvLMZHhHMvwLHjbvcjnnSBnvTQFn
ttgJtRGJQctTZtZT
CrZsJsPPZsGzwwsLwLmpwMDw

In the first group, the only item type that appears in all three rucksacks is lowercase r; this must be their badges. In the second group, their badge item type must be Z.

Priorities for these items must still be found to organize the sticker attachment efforts: here, they are 18 (r) for the first group and 52 (Z) for the second group. The sum of these is 70.

Find the item type that corresponds to the badges of each three-Elf group. What is the sum of the priorities of those item types?

Running code

rucksack

# A tibble: 301 × 1
   value                                         
   <chr>                                         
 1 jLnFTjhwFTLFDGDDvLgvDssBJBbVRNZJPPJBGzBNRVJNRB
 2 QWmffSmMZCfWrmHlCflQWfSNBpVBNbPSbbJNppcVVzzpcp
 3 lflrqrWMmfdMlrtWWmZgDjsqwFwhFDsngnvhqs        
 4 CNBGwsWVsdWDNCCVvfPLfQfgZHPBvpgf              
 5 qhJqJlmcFnhJclllPgZjvpHpvfZpPbLn              
 6 lpMJJhhcSMDMMwws                              
 7 jphtLMfVpjJRjJscMJptssnrwdNwQrNbwNzQTbcNrwQT  
 8 gSPPSqGGGrdLrNQGrr                            
 9 PvWPDvWWCSSBBZPjLVDfhjsLLsDhtR                
10 hlLwDGLNnTrbNdtbdb                            
# ℹ 291 more rows
…
                           lettres_communes == "O" ~ "41",
                           lettres_communes == "P" ~ "42",
                           lettres_communes == "Q" ~ "43",
                           lettres_communes == "R" ~ "44",
                           lettres_communes == "S" ~ "45",
                           lettres_communes == "T" ~ "46",
                           lettres_communes == "U" ~ "47",
                           lettres_communes == "V" ~ "48",
                           lettres_communes == "W" ~ "49",
                           lettres_communes == "X" ~ "50",
                           lettres_communes == "Y" ~ "51",
                           lettres_communes == "Z" ~ "52")) -> val
val

# A tibble: 101 × 3
   group_id lettres_communes value
      <dbl> <chr>            <chr>
 1        1 Z                52   
 2        2 p                16   
 3        3 L                38   
 4        4 b                2    
 5        5 t                20   
 6        6 D                30   
 7        7 v                22   
 8        8 l                12   
 9        9 Q                43   
10       10 r                18   
# ℹ 91 more rows
…
