Day 2 - Rock Paper Scissors – Mariana’ AoC
…
In the second round, your opponent will choose Paper (B), and you should choose Rock (X). This ends in a loss for you with a score of 1(1 + 0).

The third round is a draw with both players choosing Scissors, giving you a score of 3 + 3 = 6.

In this example, if you were to follow the strategy guide, you would get a total score of 15 (8 + 1 + 6).

What would your total score be if everything goes exactly according to your strategy guide?

Input

read_lines("input22022.txt") |>
  as_tibble() -> strategy
strategy

# A tibble: 2,500 × 1
   value
   <chr>
 1 B Y  
 2 A Z  
 3 A Z  
 4 B Y  
 5 A Z  
 6 B X  
 7 A X  
 8 A Z  
 9 C X  
10 A Z  
# ℹ 2,490 more rows

Running code

strategy |>
  separate(col = value, into = c("col1", "col2"), sep = " ") -> strategy1
strategy1

# A tibble: 2,500 × 2
   col1  col2 
   <chr> <chr>
 1 B     Y    
 2 A     Z    
 3 A     Z    
 4 B     Y    
 5 A     Z    
 6 B     X    
 7 A     X    
 8 A     Z    
 9 C     X    
10 A     Z    
# ℹ 2,490 more rows

strategy1 |>
  mutate(score1 = case_when(
    col1 == "A" ~ "1",  
    col1 == "B" ~ "2",  
    col1 == "C" ~ "3")) |>
  mutate(score2 = case_when(
    col2 == "X" ~ "1",  
    col2 == "Y" ~ "2",  
    col2 == "Z" ~ "3")) -> strategy2
strategy2

# A tibble: 2,500 × 4
   col1  col2  score1 score2
   <chr> <chr> <chr>  <chr> 
 1 B     Y     2      2     
 2 A     Z     1      3     
 3 A     Z     1      3     
 4 B     Y     2      2     
 5 A     Z     1      3     
 6 B     X     2      1     
 7 A     X     1      1     
 8 A     Z     1      3     
 9 C     X     3      1     
10 A     Z     1      3     
# ℹ 2,490 more rows

strategy2 |>
  mutate(object1 = case_when(
    col1 == "A" ~ "rock",  
    col1 == "B" ~ "paper",  
    col1 == "C" ~ "scissors")) |>
  mutate(object2 = case_when(
    col2 == "X" ~ "rock",  
    col2 == "Y" ~ "paper",  
    col2 == "Z" ~ "scissors")) -> strategy3
strategy3

# A tibble: 2,500 × 6
   col1  col2  score1 score2 object1  object2 
   <chr> <chr> <chr>  <chr>  <chr>    <chr>   
 1 B     Y     2      2      paper    paper   
 2 A     Z     1      3      rock     scissors
 3 A     Z     1      3      rock     scissors
 4 B     Y     2      2      paper    paper   
 5 A     Z     1      3      rock     scissors
 6 B     X     2      1      paper    rock    
 7 A     X     1      1      rock     rock    
 8 A     Z     1      3      rock     scissors
 9 C     X     3      1      scissors rock    
10 A     Z     1      3      rock     scissors
# ℹ 2,490 more rows
…
    score1 = as.numeric(score1),
    score2 = as.numeric(score2)) |>
    mutate(points1 = case_when(
      object1 == "scissors" & object2 == "rock" ~ 6,
      object1 == "scissors" & object2 == "paper" ~ 0,
      object1 == "paper" & object2 == "rock" ~ 0,
      object1 == "paper" & object2 == "scissors" ~ 6,
      object1 == "rock" & object2 == "paper" ~ 6,
      object1 == "rock" & object2 == "scissors" ~ 0,
      object1 == "rock" & object2 == "rock" ~ 3,
      object1 == "scissors" & object2 == "scissors" ~ 3,
      object1 == "paper" & object2 == "paper" ~ 3)) -> strategy6
strategy6

# A tibble: 2,500 × 7
   col1  col2  score1 score2 object1  object2  points1
   <chr> <chr>  <dbl>  <dbl> <chr>    <chr>      <dbl>
 1 B     Y          2      2 paper    paper          3
 2 A     Z          1      3 rock     scissors       0
 3 A     Z          1      3 rock     scissors       0
 4 B     Y          2      2 paper    paper          3
 5 A     Z          1      3 rock     scissors       0
 6 B     X          2      1 paper    rock           0
 7 A     X          1      1 rock     rock           3
 8 A     Z          1      3 rock     scissors       0
 9 C     X          3      1 scissors rock           6
10 A     Z          1      3 rock     scissors       0
# ℹ 2,490 more rows

strategy6 |>
  mutate(total = points1 + score2) -> strategy7
strategy7

# A tibble: 2,500 × 8
   col1  col2  score1 score2 object1  object2  points1 total
   <chr> <chr>  <dbl>  <dbl> <chr>    <chr>      <dbl> <dbl>
 1 B     Y          2      2 paper    paper          3     5
 2 A     Z          1      3 rock     scissors       0     3
 3 A     Z          1      3 rock     scissors       0     3
 4 B     Y          2      2 paper    paper          3     5
 5 A     Z          1      3 rock     scissors       0     3
 6 B     X          2      1 paper    rock           0     1
 7 A     X          1      1 rock     rock           3     4
 8 A     Z          1      3 rock     scissors       0     3
 9 C     X          3      1 scissors rock           6     7
10 A     Z          1      3 rock     scissors       0     3
# ℹ 2,490 more rows
…
In the first round, your opponent will choose Rock (A), and you need the round to end in a draw (Y), so you also choose Rock. This gives you a score of 1 + 3 = 4.

In the second round, your opponent will choose Paper (B), and you choose Rock so you lose (X) with a score of 1 + 0 = 1.

In the third round, you will defeat your opponent’s Scissors with Rock for a score of 1 + 6 = 7.

Now that you’re correctly decrypting the ultra top secret strategy guide, you would get a total score of 12.

Following the Elf’s instructions for the second column, what would your total score be if everything goes exactly according to your strategy guide?

Running code

strategy2

# A tibble: 2,500 × 4
   col1  col2  score1 score2
   <chr> <chr> <chr>  <chr> 
 1 B     Y     2      2     
 2 A     Z     1      3     
 3 A     Z     1      3     
 4 B     Y     2      2     
 5 A     Z     1      3     
 6 B     X     2      1     
 7 A     X     1      1     
 8 A     Z     1      3     
 9 C     X     3      1     
10 A     Z     1      3     
# ℹ 2,490 more rows

strategy2 |>
  mutate(object1 = case_when(
    col1 == "A" ~ "rock",  
    col1 == "B" ~ "paper",  
    col1 == "C" ~ "scissors")) |>
  mutate(object2 = case_when(
    col2 == "X" ~ "lose",  
    col2 == "Y" ~ "raw",  
    col2 == "Z" ~ "win")) -> strateg1
strateg1

# A tibble: 2,500 × 6
   col1  col2  score1 score2 object1  object2
   <chr> <chr> <chr>  <chr>  <chr>    <chr>  
 1 B     Y     2      2      paper    raw    
 2 A     Z     1      3      rock     win    
 3 A     Z     1      3      rock     win    
 4 B     Y     2      2      paper    raw    
 5 A     Z     1      3      rock     win    
 6 B     X     2      1      paper    lose   
 7 A     X     1      1      rock     lose   
 8 A     Z     1      3      rock     win    
 9 C     X     3      1      scissors lose   
10 A     Z     1      3      rock     win    
# ℹ 2,490 more rows

strateg1 |>
  mutate(score = case_when(
    object2 == "raw" ~ "3",  
    object2 == "win" ~ "6",  
    object2 == "lose" ~ "0")) -> strateg2
strateg2

# A tibble: 2,500 × 7
   col1  col2  score1 score2 object1  object2 score
   <chr> <chr> <chr>  <chr>  <chr>    <chr>   <chr>
 1 B     Y     2      2      paper    raw     3    
 2 A     Z     1      3      rock     win     6    
 3 A     Z     1      3      rock     win     6    
 4 B     Y     2      2      paper    raw     3    
 5 A     Z     1      3      rock     win     6    
 6 B     X     2      1      paper    lose    0    
 7 A     X     1      1      rock     lose    0    
 8 A     Z     1      3      rock     win     6    
 9 C     X     3      1      scissors lose    0    
10 A     Z     1      3      rock     win     6    
# ℹ 2,490 more rows

strateg2 |>
  mutate(object3 = case_when(
    score == "3" ~ object1,
    score == "0" ~ ifelse(object1 == "paper", "rock",
                          ifelse(object1 == "scissors", "paper",
                                 ifelse(object1 == "rock", "scissors", NA))),
    score == "6" ~ ifelse(object1 == "paper", "scissors",
                          ifelse(object1 == "scissors", "rock",
                                 ifelse(object1 == "rock", "paper", NA))))) ->strateg3
strateg3

# A tibble: 2,500 × 8
   col1  col2  score1 score2 object1  object2 score object3 
   <chr> <chr> <chr>  <chr>  <chr>    <chr>   <chr> <chr>   
 1 B     Y     2      2      paper    raw     3     paper   
 2 A     Z     1      3      rock     win     6     paper   
 3 A     Z     1      3      rock     win     6     paper   
 4 B     Y     2      2      paper    raw     3     paper   
 5 A     Z     1      3      rock     win     6     paper   
 6 B     X     2      1      paper    lose    0     rock    
 7 A     X     1      1      rock     lose    0     scissors
 8 A     Z     1      3      rock     win     6     paper   
 9 C     X     3      1      scissors lose    0     paper   
10 A     Z     1      3      rock     win     6     paper   
# ℹ 2,490 more rows

strateg3 |>
  mutate(total1 = case_when(
    object3 == "paper" ~ "2",  
    object3 == "rock" ~ "1",  
    object3 == "scissors" ~ "3")) -> strateg4
strateg4

# A tibble: 2,500 × 9
   col1  col2  score1 score2 object1  object2 score object3  total1
   <chr> <chr> <chr>  <chr>  <chr>    <chr>   <chr> <chr>    <chr> 
 1 B     Y     2      2      paper    raw     3     paper    2     
 2 A     Z     1      3      rock     win     6     paper    2     
 3 A     Z     1      3      rock     win     6     paper    2     
 4 B     Y     2      2      paper    raw     3     paper    2     
 5 A     Z     1      3      rock     win     6     paper    2     
 6 B     X     2      1      paper    lose    0     rock     1     
 7 A     X     1      1      rock     lose    0     scissors 3     
 8 A     Z     1      3      rock     win     6     paper    2     
 9 C     X     3      1      scissors lose    0     paper    2     
10 A     Z     1      3      rock     win     6     paper    2     
# ℹ 2,490 more rows
…
